{
"(5, 113, 151)":"B",
"(113, 190, 214)":5,
"(240, 253, 243)":1,
"(255, 246, 209)":2,
"(151, 253, 220)":"C",
"(66, 213, 213)":6,
"(248, 203, 140)":"F",
"(0, 70, 112)":"A",
"(19, 123, 159)":"B",
"(184, 63, 39)":"E",
"(59, 229, 219)":6,
"(16, 87, 126)":"A",
"(96, 178, 204)":5,
"(46, 143, 175)":"B",
"(125, 149, 145)":4,
"(90, 206, 216)":6
}

